Les pièges de visualisation – IOC-2026
…
df <- expand.grid(
  time = time,
  gene = groups
) |>
  arrange(gene, time) |>
  mutate(
    value = sin(time/2) +
            as.numeric(factor(gene))/2 +
            rnorm(n(), 1, 0.3)
  ) |> 
  as_tibble()
df

# A tibble: 104 × 3
    time gene   value
   <int> <fct>  <dbl>
 1     0 Gene_A 1.33 
 2     1 Gene_A 1.91 
 3     2 Gene_A 2.81 
 4     3 Gene_A 2.52 
 5     4 Gene_A 2.45 
 6     5 Gene_A 2.61 
 7     6 Gene_A 1.78 
 8     7 Gene_A 0.770
 9     8 Gene_A 0.537
10     9 Gene_A 0.389
# ℹ 94 more rows
…
