Week 9 - Hands-On Examples – IOC-2026
…
  pivot_longer(
    cols = -1,
    names_to = "sample_id",
    values_to = "value"
  ) |>
  mutate(
    group = str_replace(
      string = sample_id,
      pattern = "\\.([0-9]+)$",
      replace = ""
    )
  )
anova_data

# A tibble: 40 × 4
   Feature sample_id value group
   <chr>   <chr>     <dbl> <chr>
 1 LOH1    WT.1         10 WT   
 2 LOH1    WT.2          2 WT   
 3 LOH1    WT.3         14 WT   
 4 LOH1    WT.4         19 WT   
 5 LOH1    WT.5         35 WT   
 6 LOH1    WT.6         17 WT   
 7 LOH1    WT.7          6 WT   
 8 LOH1    WT.8          3 WT   
 9 LOH1    WT.9         31 WT   
10 LOH1    WT.10        13 WT   
# ℹ 30 more rows
…
