IOC-2026 – Tidy Up: Wrangling Data with {dplyr} and {tidyr}
…
[1] 2.309401

|> native pipe operator, built into base R (version 4.1+)

%>% pipe from the {magrittr} package

What is a tibble?

A “modern” data frame, compatible with the data frame, but with some enhancements: better printing, less strict on column names, consistent subsetting, etc.

Data imported by {readr} is in tibble format.

readr::read_csv("../exos_data/penguins.csv")

# A tibble: 344 × 8
   species island    bill_length_mm bill_depth_mm flipper_length_mm body_mass_g
   <chr>   <chr>              <dbl>         <dbl>             <dbl>       <dbl>
 1 Adelie  Torgersen           39.1          18.7               181        3750
 2 Adelie  Torgersen           39.5          17.4               186        3800
 3 Adelie  Torgersen           40.3          18                 195        3250
 4 Adelie  Torgersen           NA            NA                  NA          NA
 5 Adelie  Torgersen           36.7          19.3               193        3450
 6 Adelie  Torgersen           39.3          20.6               190        3650
 7 Adelie  Torgersen           38.9          17.8               181        3625
 8 Adelie  Torgersen           39.2          19.6               195        4675
 9 Adelie  Torgersen           34.1          18.1               193        3475
10 Adelie  Torgersen           42            20.2               190        4250
# ℹ 334 more rows
# ℹ 2 more variables: sex <chr>, year <dbl>
…
mutate(iris_tbl, sepal_len_mm = Sepal.Length * 100, petal_len_mm = Petal.Length * 100) |>
  head(2)

# A tibble: 2 × 7
  Sepal.Length Sepal.Width Petal.Length Petal.Width Species sepal_len_mm
         <dbl>       <dbl>        <dbl>       <dbl> <fct>          <dbl>
1          5.1         3.5          1.4         0.2 setosa           510
2          4.9         3            1.4         0.2 setosa           490
# ℹ 1 more variable: petal_len_mm <dbl>

{dplyr} - rename() Columns

iris_tbl |> rename(espece = Species, petal_width = Petal.Width)

# A tibble: 150 × 5
   Sepal.Length Sepal.Width Petal.Length petal_width espece
          <dbl>       <dbl>        <dbl>       <dbl> <fct> 
 1          5.1         3.5          1.4         0.2 setosa
 2          4.9         3            1.4         0.2 setosa
 3          4.7         3.2          1.3         0.2 setosa
 4          4.6         3.1          1.5         0.2 setosa
 5          5           3.6          1.4         0.2 setosa
 6          5.4         3.9          1.7         0.4 setosa
 7          4.6         3.4          1.4         0.3 setosa
 8          5           3.4          1.5         0.2 setosa
 9          4.4         2.9          1.4         0.2 setosa
10          4.9         3.1          1.5         0.1 setosa
# ℹ 140 more rows
…
# A tibble: 3 × 5
  Sepal.Length Sepal.Width Petal.Length Petal.Width Species  
         <dbl>       <dbl>        <dbl>       <dbl> <fct>    
1          7.9         3.8          6.4         2   virginica
2          7.7         3.8          6.7         2.2 virginica
3          7.7         2.6          6.9         2.3 virginica

{dplyr} - arrange() Rows

Order rows based on multiple columns.

iris_tbl |> arrange(desc(Sepal.Length), Sepal.Width)

# A tibble: 150 × 5
   Sepal.Length Sepal.Width Petal.Length Petal.Width Species  
          <dbl>       <dbl>        <dbl>       <dbl> <fct>    
 1          7.9         3.8          6.4         2   virginica
 2          7.7         2.6          6.9         2.3 virginica
 3          7.7         2.8          6.7         2   virginica
 4          7.7         3            6.1         2.3 virginica
 5          7.7         3.8          6.7         2.2 virginica
 6          7.6         3            6.6         2.1 virginica
 7          7.4         2.8          6.1         1.9 virginica
 8          7.3         2.9          6.3         1.8 virginica
 9          7.2         3            5.8         1.6 virginica
10          7.2         3.2          6           1.8 virginica
# ℹ 140 more rows
…
# A tibble: 1 × 5
  mean_sepal_len sd_sepal_len var_sepal_len max_sepal_len min_sepal_len
           <dbl>        <dbl>         <dbl>         <dbl>         <dbl>
1           5.84        0.828         0.686           7.9           4.3

{dplyr} - group_by Data

Use group_by to group data if we need operation based on defined group(s).

iris_tbl |> group_by(Species)

# A tibble: 150 × 5
# Groups:   Species [3]
   Sepal.Length Sepal.Width Petal.Length Petal.Width Species
          <dbl>       <dbl>        <dbl>       <dbl> <fct>  
 1          5.1         3.5          1.4         0.2 setosa 
 2          4.9         3            1.4         0.2 setosa 
 3          4.7         3.2          1.3         0.2 setosa 
 4          4.6         3.1          1.5         0.2 setosa 
 5          5           3.6          1.4         0.2 setosa 
 6          5.4         3.9          1.7         0.4 setosa 
 7          4.6         3.4          1.4         0.3 setosa 
 8          5           3.4          1.5         0.2 setosa 
 9          4.4         2.9          1.4         0.2 setosa 
10          4.9         3.1          1.5         0.1 setosa 
# ℹ 140 more rows
…
if_else(x < 0, "negative", "positive", missing = "not available")

[1] "negative"      "negative"      "positive"      "positive"     
[5] "positive"      "not available"

iris_tbl |>
  mutate(sepal_len_cat = if_else(
    condition = Sepal.Length >= 7,
    true = "long",
    false = "normal",
    missing = "missing"
  )) |>
  select(Sepal.Length, Species, sepal_len_cat)

# A tibble: 150 × 3
   Sepal.Length Species sepal_len_cat
          <dbl> <fct>   <chr>        
 1          5.1 setosa  normal       
 2          4.9 setosa  normal       
 3          4.7 setosa  normal       
 4          4.6 setosa  normal       
 5          5   setosa  normal       
 6          5.4 setosa  normal       
 7          4.6 setosa  normal       
 8          5   setosa  normal       
 9          4.4 setosa  normal       
10          4.9 setosa  normal       
# ℹ 140 more rows
…
