Week 7 - Hands-On Examples – IOC-2026
…
The third column shows the gene expression value

What are the columns to be included to pivot into longer format?

# use column index
data1_long <- data1 |>
  pivot_longer(cols = -1, names_to = "id", values_to = "value")

# use column name
# data1_long <- data1 |>
#   pivot_longer(cols = -age, names_to = "id", values_to = "value")

data1_long 

# A tibble: 2,400 × 3
     age id    value
   <dbl> <chr> <dbl>
 1    10 1MA   1.93 
 2    10 1MB   0.413
 3    10 1MC   1.21 
 4    10 1MD   1.40 
 5    10 1ME   1.02 
 6    10 1MF   0.795
 7    10 2MA   1.51 
 8    10 2MB   0.476
 9    10 2MC   1.32 
10    10 2MD   1.57 
# ℹ 2,390 more rows

Add a column struc which contains the name of the measured structure s1.

data1_long <- data1_long |>
  mutate(struc = "s1")
data1_long

# A tibble: 2,400 × 4
     age id    value struc
   <dbl> <chr> <dbl> <chr>
 1    10 1MA   1.93  s1   
 2    10 1MB   0.413 s1   
 3    10 1MC   1.21  s1   
 4    10 1MD   1.40  s1   
 5    10 1ME   1.02  s1   
 6    10 1MF   0.795 s1   
 7    10 2MA   1.51  s1   
 8    10 2MB   0.476 s1   
 9    10 2MC   1.32  s1   
10    10 2MD   1.57  s1   
# ℹ 2,390 more rows
…
Is there any missing value for gene 1? If yes, how to remove lines with NA?

table(is.na(data1_long$value[data1_long$gene_id == "1"]))

FALSE  TRUE 
  106    14 

data1_long |>
  filter(gene_id == "1") |>
  drop_na(value)

# A tibble: 106 × 6
     age gene_id sex   animal value struc
   <dbl> <chr>   <chr> <chr>  <dbl> <chr>
 1    10 1       M     A      1.93  s1   
 2    10 1       M     B      0.413 s1   
 3    10 1       M     C      1.21  s1   
 4    10 1       M     D      1.40  s1   
 5    10 1       M     E      1.02  s1   
 6    10 1       M     F      0.795 s1   
 7    10 1       F     A      2.93  s1   
 8    10 1       F     B      1.47  s1   
 9    10 1       F     C      2.44  s1   
10    10 1       F     D      2.71  s1   
# ℹ 96 more rows
…
Load the package and take a look at the help page for ggpairs(). How will you reshape the data1_long to provide the necessary data for the ggpairs() function?

library(GGally)
?ggpairs

data1_wider <- data1_long |>
  pivot_wider(
    names_from = "gene_id",
    values_from = "value",
    names_prefix = "gene" # to avoid name starts with number
  )

data1_wider

# A tibble: 120 × 24
     age sex   animal struc gene1 gene2 gene3 gene4  gene5  gene6  gene7  gene8
   <dbl> <chr> <chr>  <chr> <dbl> <dbl> <dbl> <dbl>  <dbl>  <dbl>  <dbl>  <dbl>
 1    10 M     A      s1    1.93  1.51  1.18  1.32   1.22   0.916  1.11   1.12 
 2    10 M     B      s1    0.413 0.476 0.539 0.624  0.418  0.426  0.718  0.806
 3    10 M     C      s1    1.21  1.32  1.22  1.07   1.38   1.28   0.829  1.10 
 4    10 M     D      s1    1.40  1.57  1.44  1.33   1.33   1.65   1.33   1.15 
 5    10 M     E      s1    1.02  0.918 1.06  0.816  0.848  1.47   1.13   0.941
 6    10 M     F      s1    0.795 0.775 0.788 1.04   1.15   0.945  1.03   0.906
 7    10 F     A      s1    2.93  2.36  2.13  1.92   0.846  1.93   1.38   0.532
 8    10 F     B      s1    1.47  1.05  0.788 0.623  0.803  0.921  1.45   0.693
 9    10 F     C      s1    2.44  1.73  1.44  1.33   0.892  2.87   1.88   0.646
10    10 F     D      s1    2.71  1.90  2.28  1.79  NA     NA     NA     NA    
# ℹ 110 more rows
# ℹ 12 more variables: gene9 <dbl>, gene10 <dbl>, gene11 <dbl>, gene12 <dbl>,
#   gene13 <dbl>, gene14 <dbl>, gene15 <dbl>, gene16 <dbl>, gene17 <dbl>,
#   gene18 <dbl>, gene19 <dbl>, gene20 <dbl>
…
