Week 6 - Hands-On Examples – IOC-2026
…
Rows: 60 Columns: 3
── Column specification ────────────────────────────────────────────────────────
Delimiter: ","
chr (2): sample_id, sample_group
dbl (1): expression

ℹ Use `spec()` to retrieve the full column specification for this data.
ℹ Specify the column types or set `show_col_types = FALSE` to quiet this message.

Correction

rnaseq_data

# A tibble: 60 × 3
   sample_id expression sample_group
   <chr>          <dbl> <chr>       
 1 sample1           46 Control     
 2 sample2           72 Control     
 3 sample3           29 Control     
 4 sample4           64 Control     
 5 sample5           37 Control     
 6 sample6           36 Control     
 7 sample7           40 Control     
 8 sample8           65 Control     
 9 sample9           68 Control     
10 sample10          34 Control     
# ℹ 50 more rows
…
## recode the sample_group as factor
rnaseq_data$sample_group <- factor(rnaseq_data$sample_group, levels = c("Control", "Case"))

Remove rows with missing values. Create a new dataset without missing values.

Correction

# Remove rows where expression is NA
data_clean <- rnaseq_data[!is.na(rnaseq_data$expression), ]

# Show the cleaned dataset
data_clean

# A tibble: 57 × 3
   sample_id expression sample_group
   <chr>          <dbl> <fct>       
 1 sample1           46 Control     
 2 sample2           72 Control     
 3 sample3           29 Control     
 4 sample4           64 Control     
 5 sample5           37 Control     
 6 sample6           36 Control     
 7 sample7           40 Control     
 8 sample8           65 Control     
 9 sample9           68 Control     
10 sample10          34 Control     
# ℹ 47 more rows
…
