Week 8 - Hands-On Examples – IOC-2026
…
Identify the most significantly up-regulated gene (i.e. the one with the lowest adjusted p-value). Create a boxplot of its expression counts across WT and SET1 samples, using:

geom_boxplot() and geom_points()

the custom group colors defined above

Store the resulting figure in an object named p.

# find the top up-regulated gene
filter(de_res, log2FoldChange > 0) |>
  arrange(padj)

# A tibble: 22 × 7
   gene_name baseMean log2FoldChange lfcSE  stat       pvalue        padj
   <chr>        <dbl>          <dbl> <dbl> <dbl>        <dbl>       <dbl>
 1 LOH1          48.6          2.23  0.397 5.61  0.0000000206 0.000000927
 2 SUT2873       26.0          1.43  0.369 3.87  0.000110     0.00165    
 3 SUT476        88.1          0.994 0.386 2.58  0.00999      0.0761     
 4 CDC20        217.           0.789 0.491 1.61  0.108        0.579      
 5 ACM1         140.           0.733 0.486 1.51  0.132        0.593      
 6 CLB6         111.           0.737 0.545 1.35  0.176        0.720      
 7 TOM70       1256.           0.263 0.216 1.22  0.224        0.788      
 8 POL30       1274.           0.416 0.422 0.988 0.323        0.891      
 9 KCC4         316.           0.219 0.434 0.505 0.614        0.891      
10 MCD1         632.           0.211 0.365 0.579 0.563        0.891      
# ℹ 12 more rows
…
